*** Life<Cell> 5x5 ***

Generation = 0, Population = 8.
-----
-0---
00---
0---0
-00-0

Generation = 1, Population = 13.
-0---
-10--
--0-0
10001
-11-1

Generation = 2, Population = 14.
01---
0--00
00-01
*1--*
---0*

Generation = 3, Population = 16.
-*000
-10--
1---*
*-00.
0111*

Generation = 4, Population = 10.
0*1-1
-----
*---.
*1--.
--***

Generation = 5, Population = 13.
1**--
-10-0
*---.
**-0.
0-**.

*** Life<Cell> 5x5 ***

Generation = 0, Population = 8.
0----
00---
---0-
---00
-0-0-

Generation = 1, Population = 14.
1----
-100-
0001-
-0011
0--1-

Generation = 2, Population = 11.
--00-
0-1-0
1--*-
0-1-*
---*-

Generation = 3, Population = 12.
10-1-
1-*--
-00.0
1---*
0--*-

Generation = 4, Population = 14.
-10-0
*-.-0
11-.1
*-1-*
100.-

Generation = 5, Population = 12.
-*1-1
*1*0-
**-.-
.-*-.
---*0

*** Life<Cell> 5x5 ***

Generation = 0, Population = 8.
---0-
00---
-0--0
0--0-
----0

Generation = 1, Population = 14.
000-0
1-000
010--
--0-0
0----

Generation = 2, Population = 8.
---01
--1--
--1--
--1--
-00-0

Generation = 3, Population = 11.
---1*
-0*-0
-1-0-
---00
01---

Generation = 4, Population = 18.
-0-**
1-.-1
0*110
0-1-1
1*000

Generation = 5, Population = 9.
---**
*0.0-
1.*-1
-----
-.1--

*** Life<Cell> 5x5 ***

Generation = 0, Population = 9.
00---
---0-
-----
0-000
0-0--

Generation = 1, Population = 16.
1100-
000-0
0-0-0
1---1
1-1-0

Generation = 2, Population = 14.
-*11-
11101
-01--
-0-0-
*---1

Generation = 3, Population = 9.
-.*--
*--1*
-1-00
-10--
.----

Generation = 4, Population = 10.
1..-0
.---*
-*1--
1-1-1
.01--

Generation = 5, Population = 10.
-..11
.111.
-*-0-
-----
.1-01

*** Life<Cell> 5x5 ***

Generation = 0, Population = 9.
0--0-
----0
-0-00
0---0
-0---

Generation = 1, Population = 12.
-00--
00-01
---11
-0--1
--0-0

Generation = 2, Population = 9.
--1-0
1-0--
0-0-*
0----
----1

Generation = 3, Population = 11.
00*--
*--0-
--1-.
100--
0--0-

Generation = 4, Population = 7.
--*--
*-0-1
--*-.
-----
1---1

Generation = 5, Population = 12.
00.00
.----
00.1.
1-0-1
-0-0-

*** Life<Cell> 5x5 ***

Generation = 0, Population = 9.
00--0
-----
00-0-
0-0--
--0--

Generation = 1, Population = 16.
1100-
---00
-10-0
101--
0010-

Generation = 2, Population = 11.
*----
0-0--
---01
--*-0
-1*10

Generation = 3, Population = 10.
.10--
1---0
0-01-
--.--
0**--

Generation = 4, Population = 13.
.*100
*----
1-1*-
-0.0-
1*.1-

Generation = 5, Population = 16.
.*--1
*---0
*1**1
11.-0
**.*0

*** Life<Cell> 5x5 ***

Generation = 0, Population = 9.
0----
--0--
-000-
--00-
00---

Generation = 1, Population = 13.
-00--
0-1--
01--0
00--0
11-0-

Generation = 2, Population = 13.
-1-0-
1-*00
1--01
110-1
-----

Generation = 3, Population = 13.
--01-
*0.--
--0-*
--10*
110-0

Generation = 4, Population = 17.
0-1*0
.1.00
1-10*
1-*-*
*--01

Generation = 5, Population = 11.
-1*.-
*-.11
*1-1.
--*-.
.1-1-

*** Life<Cell> 5x5 ***

Generation = 0, Population = 8.
0--0-
0-0-0
-00--
-0---
-----

Generation = 1, Population = 11.
10---
1010-
---00
01---
-0---

Generation = 2, Population = 9.
---0-
-1---
----1
1-000
-10--

Generation = 3, Population = 14.
-00-0
1-100
000-*
-1---
-*--0

Generation = 4, Population = 12.
-1-01
*-*-1
-1-0*
-----
0.00-

Generation = 5, Population = 13.
--01-
*-.--
--01*
110-0
-.110

*** Life<Cell> 5x5 ***

Generation = 0, Population = 8.
--00-
00---
-----
0---0
-0-0-

Generation = 1, Population = 9.
0-110
11-0-
-0--0
-----
-----

Generation = 2, Population = 12.
10**1
--010
-10--
-0--0
-----

Generation = 3, Population = 11.
*-..-
111*-
0----
01-0-
-0--0

Generation = 4, Population = 8.
*-*.-
*--.0
-10--
-----
-10--

Generation = 5, Population = 11.
.-..1
*--*-
-*100
-----
0*10-

*** Life<Cell> 5x5 ***

Generation = 0, Population = 8.
--0-0
-----
--000
-00--
----0

Generation = 1, Population = 8.
-0---
---0-
----1
01---
-000-

Generation = 2, Population = 12.
0-00-
-00--
00---
1--00
---10

Generation = 3, Population = 10.
-0-10
0----
---01
*-0--
0-0--

Generation = 4, Population = 9.
---*1
-----
---1*
.-1-0
1-11-

Generation = 5, Population = 8.
--0.*
-----
---**
.1*-1
---*-

*** Life<Cell> 5x5 ***

Generation = 0, Population = 5.
--0--
-0---
-0---
---00
-----

Generation = 1, Population = 14.
---0-
01---
01000
-0011
---00

Generation = 2, Population = 10.
000-0
----0
--11-
--1-*
-0---

Generation = 3, Population = 13.
1-1-1
01--1
-1-*0
--*1.
0---0

Generation = 4, Population = 9.
*0--*
-----
-*1.-
0-*-.
-00--

Generation = 5, Population = 10.
.110.
0-0-1
-*-.-
--.1.
-1-0-

*** Life<Cell> 5x5 ***

Generation = 0, Population = 9.
-----
--0--
0-00-
0--0-
00-0-

Generation = 1, Population = 10.
--0--
001--
1---0
----0
-1-10

Generation = 2, Population = 13.
0-10-
---00
*-001
00---
0--*-

Generation = 3, Population = 13.
--*--
--11-
*011-
11--0
1-0.0

Generation = 4, Population = 15.
-0*--
0-*-0
*1*--
*-0-1
*1-*1

Generation = 5, Population = 15.
-1*00
1-.--
*-*1-
.-10*
**0*-

*** Life<Cell> 5x5 ***

Generation = 0, Population = 8.
00---
0-00-
-----
0-0-0
-----

Generation = 1, Population = 12.
-1-0-
10110
---00
-----
0-0-0

Generation = 2, Population = 10.
-*01-
*1---
00---
0-00-
-----

Generation = 3, Population = 15.
-*-*0
.*-1-
1--0-
10110
0-00-

Generation = 4, Population = 12.
0.-*1
**---
*0---
*-*-1
10---

Generation = 5, Population = 11.
1*0.*
..110
.---0
.-*--
-1--0

*** Life<Cell> 5x5 ***

Generation = 0, Population = 9.
-0---
0-0-0
----0
0-0-0
0----

Generation = 1, Population = 10.
----0
-0--1
---0-
1---1
100-0

Generation = 2, Population = 15.
-0-01
0-0-*
000-0
*-0-*
--1-1

Generation = 3, Population = 15.
--01-
1-10*
1-1--
*0--*
10*-*

Generation = 4, Population = 12.
00---
*-*1*
-0*--
.-00.
-1*-.

Generation = 5, Population = 13.
-1-11
*-.-.
-1.00
.011.
1**-.

*** Life<Cell> 5x5 ***

Generation = 0, Population = 8.
000--
-----
--0-0
0--0-
0----

Generation = 1, Population = 14.
1-10-
00--0
00-0-
10---
10-0-

Generation = 2, Population = 12.
*0*1-
1--0-
11---
*10--
----0

Generation = 3, Population = 17.
*-*-0
-0-10
*--0-
**100
1000-

Generation = 4, Population = 13.
.0*11
1-0--
*1--0
..*-1
-11--

Generation = 5, Population = 17.
.1*-*
*-1--
**001
*.*-*
1*-00

*** Life<Cell> 5x5 ***

Generation = 0, Population = 7.
0--00
0----
-0--0
-----
-0---

Generation = 1, Population = 12.
10011
1--0-
--00-
----0
0-0--

Generation = 2, Population = 10.
---**
*-0--
001--
0----
---00

Generation = 3, Population = 16.
1--*.
*01-0
1--0-
1-000
0-011

Generation = 4, Population = 9.
*--*.
*-*--
--110
-----
1--*-

Generation = 5, Population = 13.
.0-..
.-*00
10--1
1-0-0
-00.1

*** Life<Cell> 5x5 ***

Generation = 0, Population = 9.
----0
00---
--0-0
-0---
-00-0

Generation = 1, Population = 12.
00-0-
11---
00---
010--
0-1--

Generation = 2, Population = 14.
----0
**00-
11---
1*-0-
10*0-

Generation = 3, Population = 13.
000--
*.-1-
**---
*.010
-1.-0

Generation = 4, Population = 8.
--1--
..--0
*.--0
*.1--
--*-1

Generation = 5, Population = 14.
-0-00
..011
.*001
..*1-
11.--

*** Life<Cell> 5x5 ***

Generation = 0, Population = 9.
-----
-0--0
---00
-00--
-00-0

Generation = 1, Population = 8.
-0--0
0-0-1
---1-
0----
0----

Generation = 2, Population = 10.
---01
-0-0*
-----
10-0-
10---

Generation = 3, Population = 9.
-00--
0---*
0---0
----0
--00-

Generation = 4, Population = 16.
-1101
1-00.
10-1-
1-0-1
-011-

Generation = 5, Population = 14.
-**1*
*--1.
*1-*-
*-1--
-1**-

*** Life<Cell> 5x5 ***

Generation = 0, Population = 7.
---0-
-0---
-0---
00---
---00

Generation = 1, Population = 17.
-00-0
0100-
--0--
1-000
00011

Generation = 2, Population = 12.
---0-
1*-1-
---00
*011-
--1*-

Generation = 3, Population = 13.
00010
*.---
---11
.-**-
0--*1

Generation = 4, Population = 11.
----1
*.0--
0---*
.0*.0
-0-**

Generation = 5, Population = 14.
0-01-
.*-1-
1--1.
*-*.-
011**

*** Life<Cell> 5x5 ***

Generation = 0, Population = 7.
00-0-
----0
0--0-
-----
--0--

Generation = 1, Population = 11.
11---
-0-0-
-00--
0-00-
-0-0-

Generation = 2, Population = 10.
*-00-
--0-0
---0-
----0
--010

Generation = 3, Population = 10.
.--1-
001--
----0
--001
-01--

Generation = 4, Population = 11.
.1--0
1-*-0
00--1
-----
01--0

Generation = 5, Population = 11.
.--11
*-*--
-1-0*
-----
1*11-

*** Life<Cell> 5x5 ***

Generation = 0, Population = 9.
0--0-
0-0--
-00-0
----0
-0---

Generation = 1, Population = 15.
10--0
101-0
-1--1
--001
0-0-0

Generation = 2, Population = 10.
---01
--*--
-*0--
0---*
--101

Generation = 3, Population = 11.
---1*
--*-0
-*-01
----*
00*--

Generation = 4, Population = 13.
---**
--*--
0.01*
0-0-*
1-.01

Generation = 5, Population = 12.
---*.
10*0-
1.1-*
--1-.
*0.1-

*** Life<Cell> 5x5 ***

Generation = 0, Population = 8.
-0---
000--
0-0-0
-----
---0-

Generation = 1, Population = 13.
-1---
-1-00
101--
0-000
--0-0

Generation = 2, Population = 18.
0*000
--011
-1-0-
101--
00101

Generation = 3, Population = 13.
1*11-
01---
-*-1-
---00
-1*-*

Generation = 4, Population = 10.
-.-*0
-*---
-*-*-
-----
0**0*

Generation = 5, Population = 13.
-.1.1
0.0-1
1.-.0
1-1-0
1**-.

*** Life<Cell> 5x5 ***

Generation = 0, Population = 10.
---0-
-----
0-000
-0-0-
0--00

Generation = 1, Population = 14.
--0-0
0-0-0
-0111
0-0-0
--0-1

Generation = 2, Population = 15.
001-1
-0-0-
01--*
-0-0-
001-*

Generation = 3, Population = 19.
11*0-
0-0-0
1*11*
0-0-0
11*0.

Generation = 4, Population = 8.
--*1-
----1
*.--*
----1
--*1.

Generation = 5, Population = 12.
-1.*-
0-0-*
..-1*
0-0-*
-1.*.

*** Life<Cell> 5x5 ***

Generation = 0, Population = 9.
0----
0-0--
-0-0-
--0--
00-0-

Generation = 1, Population = 13.
100--
10---
----0
00-0-
110-0

Generation = 2, Population = 9.
-110-
----0
-----
--0-0
-*10-

Generation = 3, Population = 12.
1*-1-
-00--
--0--
--10-
1**1-

Generation = 4, Population = 10.
**1-0
-----
-----
0-*-0
**.-0

Generation = 5, Population = 16.
.**--
100-0
0-0-0
10.-1
**.11

*** Life<Cell> 5x5 ***

Generation = 0, Population = 7.
-----
-0-00
---0-
----0
00---

Generation = 1, Population = 15.
-0-00
0---1
-0010
00---
110-0

Generation = 2, Population = 10.
---1-
-000-
0----
-100-
-*1--

Generation = 3, Population = 11.
-0-*0
-1--1
-0---
--110
1*---

Generation = 4, Population = 17.
01-*-
0-0-*
01-1-
01*-1
**-00

Generation = 5, Population = 11.
-*0*-
----*
1---0
1-.-*
*.11-

*** Life<Cell> 5x5 ***

Generation = 0, Population = 7.
---0-
0-0-0
-----
-0-00
-----

Generation = 1, Population = 12.
0----
---0-
0000-
0--11
-0-00

Generation = 2, Population = 9.
-0-0-
-0-10
---1-
10-*-
-----

Generation = 3, Population = 15.
01-1-
01-*1
0-0--
*1-.1
00-0-

Generation = 4, Population = 6.
---*-
1-0**
-----
.--*-
-----

Generation = 5, Population = 11.
0--*-
--1**
0-0-0
.-0.1
---0-

*** Life<Cell> 5x5 ***

Generation = 0, Population = 10.
---00
-00-0
-----
00000
-----

Generation = 1, Population = 16.
-0-1-
01101
0--0-
1---1
00000

Generation = 2, Population = 10.
-10*-
-*--*
---10
--00*
-----

Generation = 3, Population = 15.
0--*-
0*-0*
-0--1
-011*
--000

Generation = 4, Population = 10.
1-0*-
-*--*
---1-
1-**.
---1-

Generation = 5, Population = 15.
-11*-
-*-0*
00-*-
--***
0--*0

*** Life<Cell> 5x5 ***

Generation = 0, Population = 8.
-----
-00--
0---0
0--0-
--00-

Generation = 1, Population = 15.
-00--
-1100
1-0--
10-1-
001-0

Generation = 2, Population = 11.
0---0
----1
*-100
*----
-1*0-

Generation = 3, Population = 11.
-0-01
--1--
.-*--
*---0
-**10

Generation = 4, Population = 12.
0-01*
--*-1
.0.00
.---1
-**--

Generation = 5, Population = 10.
----*
0-.--
.-*11
.-0-*
0..10

*** Life<Cell> 5x5 ***

Generation = 0, Population = 9.
00-0-
-0---
----0
00---
-00--

Generation = 1, Population = 12.
1---0
-1000
0--0-
1---0
--10-

Generation = 2, Population = 16.
--0-1
0*-1-
1--10
*000-
00*1-

Generation = 3, Population = 14.
1--0-
-*0*0
-0-*1
.111-
-1.-0

Generation = 4, Population = 8.
---1-
-*-.-
1--.-
**--0
0*.--

Generation = 5, Population = 11.
-00-1
-.0.-
*0-.1
..11-
-*.-0

*** Life<Cell> 5x5 ***

Generation = 0, Population = 8.
---00
-----
00---
0-0-0
---0-

Generation = 1, Population = 13.
--011
00-00
-1--0
10-0-
0----

Generation = 2, Population = 12.
0-1*-
1-0-1
0-001
-----
1--0-

Generation = 3, Population = 9.
1--*-
----*
1----
--0-0
-00-0

Generation = 4, Population = 10.
-01.-
----.
-10--
1-1-1
11--1

Generation = 5, Population = 12.
11*.-
----.
-*-01
*-*-*
-*-0*

*** Life<Cell> 5x5 ***

Generation = 0, Population = 8.
0--0-
-0-0-
0----
-000-
-----

Generation = 1, Population = 14.
--010
0--10
-00--
-1-10
-000-

Generation = 2, Population = 10.
001*-
--0--
--10-
0---1
0----

Generation = 3, Population = 15.
1-**0
0--1-
00-1-
110--
10--0

Generation = 4, Population = 12.
*-**1
-----
1-1*0
*-1-1
---0-

Generation = 5, Population = 6.
.-.**
-----
*--.-
.-*-*
1----

*** Life<Cell> 5x5 ***

Generation = 0, Population = 6.
-----
0-0-0
0---0
-----
0----

Generation = 1, Population = 12.
0-0-0
1---1
10001
----0
-0---

Generation = 2, Population = 9.
1---1
-----
----*
0-0-1
0-0-0

Generation = 3, Population = 11.
-0-0-
1----
1-00.
1-1--
1-1-1

Generation = 4, Population = 7.
----1
*-0--
---1.
----1
*-*--

Generation = 5, Population = 9.
1-00-
.---1
1---.
1-1--
.-.01

*** Life<Cell> 5x5 ***

Generation = 0, Population = 10.
-00--
--0-0
--000
---00
----0

Generation = 1, Population = 11.
01-00
---01
-0-11
----1
----1

Generation = 2, Population = 11.
1*---
0-01*
0---*
-0---
---0*

Generation = 3, Population = 14.
-*-00
-01-*
1-0-*
--00-
-001.

Generation = 4, Population = 14.
1*01-
---1*
-0-1*
0-1--
011-.

Generation = 5, Population = 10.
**---
0--*.
--0-*
1-*-1
---1.

*** Life<Cell> 5x5 ***

Generation = 0, Population = 9.
00-0-
---0-
0-0--
0--0-
--0--

Generation = 1, Population = 15.
11-10
-0-10
1--0-
100-0
00---

Generation = 2, Population = 13.
*----
01-*-
*0-10
*110-
----0

Generation = 3, Population = 14.
*--1-
1--*-
.10*1
**--0
000--

Generation = 4, Population = 11.
.10*0
*--.-
.--.-
..1-1
-1100

Generation = 5, Population = 15.
.*-*1
.-0*0
.-0.1
.**0*
0**--

*** Life<Cell> 5x5 ***

Generation = 0, Population = 5.
----0
----0
0----
-00--
-----

Generation = 1, Population = 12.
---01
0--01
--0-0
-110-
-00--

Generation = 2, Population = 10.
0-0--
-0--*
0-1-1
0--1-
0----

Generation = 3, Population = 14.
-0-01
0-00.
10-0*
-1---
10-0-

Generation = 4, Population = 12.
--0-*
1-11.
--1-*
0-1-0
*---0

Generation = 5, Population = 16.
0010.
--***
-0-0*
1-*--
.0001

*** Life<Cell> 5x5 ***

Generation = 0, Population = 8.
-00--
--0-0
0----
----0
--00-

Generation = 1, Population = 13.
01-00
0-1--
-00--
0-0--
-011-

Generation = 2, Population = 15.
-*011
1-*-0
0110-
-----
-1**0

Generation = 3, Population = 13.
-*1--
*-.-1
--*1-
0---0
0***1

Generation = 4, Population = 13.
-**11
.-.--
-1.*0
1--01
-***-

Generation = 5, Population = 10.
0.*-*
.-.--
--**-
-0-1-
-***-

*** Life<Cell> 5x5 ***

Generation = 0, Population = 8.
-0-00
00---
-0-0-
-0---
-----

Generation = 1, Population = 13.
-1-11
110-0
----0
0100-
-0---

Generation = 2, Population = 13.
-*0*-
**10-
----1
1*-1-
-1-0-

Generation = 3, Population = 13.
-.1*1
*.*--
--00-
**-*-
-*-10

Generation = 4, Population = 12.
0*-**
...00
----1
**0.-
-*--1

Generation = 5, Population = 15.
1.-**
..*-1
000-*
**1*-
-*-1-

*** Life<Cell> 5x5 ***

Generation = 0, Population = 9.
---0-
000--
-00-0
---0-
---0-

Generation = 1, Population = 12.
00--0
11--0
---0-
-0-1-
--010

Generation = 2, Population = 13.
--001
--0-1
0-01-
0-0--
--1*1

Generation = 3, Population = 14.
-0---
11--*
1-1*-
1--10
00-**

Generation = 4, Population = 10.
-10-1
----.
-0*.0
---*-
-1-**

Generation = 5, Population = 11.
0*1--
----.
11**-
---.0
0--**

*** Life<Cell> 5x5 ***

Generation = 0, Population = 8.
-0--0
0---0
00---
--0--
-0---

Generation = 1, Population = 13.
--001
10-01
-1--0
00-0-
0----

Generation = 2, Population = 12.
0-11-
*-0-*
0-001
-----
1--0-

Generation = 3, Population = 10.
1--*-
*---*
1----
--0-0
-00-0

Generation = 4, Population = 14.
*01.-
*0--.
*10--
0-1-1
11--1

Generation = 5, Population = 13.
*1*.-
.10-.
.*-01
--*-*
-*-0*

*** Life<Cell> 5x5 ***

Generation = 0, Population = 6.
---0-
---00
0----
---0-
0----

Generation = 1, Population = 11.
--01-
0-0-1
-0--0
--0-0
-0-0-

Generation = 2, Population = 14.
00-*-
-010*
--00-
-0-01
0-0--

Generation = 3, Population = 11.
1-0*-
--*-*
-0-10
----*
-0--0

Generation = 4, Population = 12.
---*-
0-.-*
0-0*1
----*
0-001

Generation = 5, Population = 12.
1-0.-
10*0*
1-1.*
---0.
--1--

*** Life<Cell> 6x6 ***

Generation = 0, Population = 10.
---00-
-0----
----0-
0-----
----00
--00-0

Generation = 1, Population = 22.
-00110
0-00--
00-0-0
-0---0
0-0-1-
-01101

Generation = 2, Population = 21.
-11*-1
1--1--
--01-1
01-0-1
--10*0
-1*-1*

Generation = 3, Population = 19.
-*-*--
--0-0-
--1*-*
1*--0-
00-1.1
0**1-*

Generation = 4, Population = 13.
0.1*--
--1---
0--.-*
-.-0-1
111*.*
-..--.

Generation = 5, Population = 16.
-*-*1-
-0*--0
-01.0.
-.-1--
*--*..
0**1-.

*** Life<Cell> 6x6 ***

Generation = 0, Population = 9.
------
00-0--
-0-0-0
00----
----0-
------

Generation = 1, Population = 19.
00-0--
1--100
0--1--
1-0000
00-0-0
----0-

Generation = 2, Population = 16.
-1-1-0
--0*-1
-0--0-
-01---
-101-1
00----

Generation = 3, Population = 22.
0-0*-1
-01*0*
010---
11--00
-*1*--
1--0-0

Generation = 4, Population = 12.
-1-.0*
1--.-*
------
-*1-11
0.-*--
---1--

Generation = 5, Population = 20.
--0.1*
---.-*
010-0-
-**0**
-*-*-1
1-0*0-

*** Life<Cell> 6x6 ***

Generation = 0, Population = 10.
0--0--
---0--
--00--
0--00-
0-----
--0---

Generation = 1, Population = 22.
-0010-
0---0-
0011--
10--10
10000-
00-0--

Generation = 2, Population = 21.
-1---0
10-010
11-*00
*100-1
*--1--
--01--

Generation = 3, Population = 24.
-*01-1
-1--*1
**1.11
.*-11*
*-0-00
001-0-

Generation = 4, Population = 17.
0*-*0*
--0-.*
*.*.**
..-*-.
*-111-
----1-

Generation = 5, Population = 20.
1*0*-*
--1-..
.**.**
..0.1*
.-**-0
0-1-*0

*** Life<Cell> 6x6 ***

Generation = 0, Population = 10.
--0-0-
-----0
------
----0-
000-0-
0----0

Generation = 1, Population = 14.
-0----
--0---
----00
000010
--1-1-
1-0---

Generation = 2, Population = 13.
0-----
---000
00----
1-1---
---0*-
--100-

Generation = 3, Population = 23.
-0-000
-001-1
-1-000
*0--1-
0-1-*0
-0*1-0

Generation = 4, Population = 18.
010---
01-*--
--0-1-
*----0
1-*0.-
-1**01

Generation = 5, Population = 10.
-*1---
---*--
---0--
.0-0--
*0.-.-
-*..-*

*** Life<Cell> 6x6 ***

Generation = 0, Population = 10.
--0---
0-----
---0--
------
0-00--
-00-00

Generation = 1, Population = 18.
00-0--
-000--
0-0-0-
0-0---
-0-1-0
-1-011

Generation = 2, Population = 22.
1-010-
0-1---
10-0-0
101-00
-10*01
0*----

Generation = 3, Population = 21.
*---10
-0*000
*---01
-----1
0*1.1-
1*-011

Generation = 4, Population = 18.
.-0---
01*--1
.-0--*
-01-0*
-.*.*1
-.01**

Generation = 5, Population = 17.
.-11-0
1-*00*
*0-0-*
11*--.
-....*
-.--.*

*** Life<Cell> 6x6 ***

Generation = 0, Population = 9.
-0----
-----0
---00-
--0-0-
0-----
--00--

Generation = 1, Population = 19.
0-0--0
-0-0--
---1--
00-010
-0-00-
00110-

Generation = 2, Population = 21.
-0--0-
--0100
0-0--0
1--1*1
0-011-
11-*-0

Generation = 3, Population = 17.
0---1-
0---1-
1-110-
-00-.-
-01--0
-*1*0-

Generation = 4, Population = 22.
10-0*0
-00--0
*0---0
--1-*1
01*---
1***1-

Generation = 5, Population = 17.
*-01*-
011---
*-1---
-0*-*-
-*.--0
-..**0

*** Life<Cell> 6x6 ***

Generation = 0, Population = 8.
--0---
------
00----
-----0
0-0---
-00---

Generation = 1, Population = 18.
-0-0--
000---
110--0
-00-0-
-010-0
-1-0--

Generation = 2, Population = 20.
-10-0-
-----0
--10--
-110-0
01*-0-
0*0100

Generation = 3, Population = 12.
0*1---
-0-0--
----0-
----0-
--.-10
-.1-11

Generation = 4, Population = 11.
1**---
-10---
-1--10
---0--
--.0*-
-.----

Generation = 5, Population = 20.
*.*0--
-*-000
1*--*1
-11100
--.-*0
-.-11-

*** Life<Cell> 6x6 ***

Generation = 0, Population = 7.
----0-
00----
-0--0-
------
----0-
---0--

Generation = 1, Population = 13.
00-0-0
1-0---
-100-0
-0----
-----0
--0---

Generation = 2, Population = 16.
-10---
*-10--
--11--
01-0--
-00-0-
-0-0-0

Generation = 3, Population = 14.
-*----
.0*-0-
---*0-
1--1--
-11---
010-0-

Generation = 4, Population = 16.
0*--0-
.-*010
01-.-0
---*--
0---0-
1*---0

Generation = 5, Population = 15.
1*--1-
.0*-*-
1*-.-1
-10.-0
1-----
-*0---

*** Life<Cell> 6x6 ***

Generation = 0, Population = 7.
0--0-0
--0---
00----
------
------
----0-

Generation = 1, Population = 9.
-0----
-----0
11----
00----
----0-
---0-0

Generation = 2, Population = 13.
0-0--0
0---0-
--0--0
--0-0-
00----
--0-0-

Generation = 3, Population = 18.
1--0--
10-0-0
11100-
0-1---
110---
0----0

Generation = 4, Population = 20.
*-0100
*-0-0-
***11-
----0-
*--0-0
1-0-0-

Generation = 5, Population = 15.
.---11
*0----
*.*-*0
-0101-
.1----
*--0--

*** Life<Cell> 6x6 ***

Generation = 0, Population = 9.
-----0
0-----
0---0-
--00--
0--0-0
------

Generation = 1, Population = 18.
0---0-
10--00
100--0
-01--0
-0-1--
0--0-0

Generation = 2, Population = 15.
1--01-
*--0--
---0--
-1--01
-10*0-
--01--

Generation = 3, Population = 18.
*00-*0
.00---
1001-0
0*-0-*
0-1.--
------

Generation = 4, Population = 15.
*1--.1
.11-0-
--1--1
1.-1-.
11-.-0
0-0---

Generation = 5, Population = 14.
*---.-
*----0
1-*---
*.--0.
**-.0-
10-1-0

*** Life<Cell> 6x6 ***

Generation = 0, Population = 9.
---00-
0----0
0-0---
00----
------
----0-

Generation = 1, Population = 17.
0-011-
1000--
-0-0-0
-1----
00--0-
---0-0

Generation = 2, Population = 21.
10-**0
-111-0
--01--
--0000
1-0---
000-0-

Generation = 3, Population = 18.
*-0*.-
--**01
--1*--
0111-1
*0---0
-----0

Generation = 4, Population = 16.
.--..0
11..-*
0-*.--
-**--*
*--00-
00--01

Generation = 5, Population = 15.
.0-..1
-*..0.
1-*.--
0.*--.
*0-1-0
-10--*

*** Life<Cell> 6x6 ***

Generation = 0, Population = 10.
--00--
-----0
-0----
--00--
-----0
-00--0

Generation = 1, Population = 26.
-01100
-0000-
0--0-0
--1100
-0-001
011001

Generation = 2, Population = 20.
0-**11
--1--0
--0--1
0-*-11
-1-1-*
1*-11-

Generation = 3, Population = 20.
--**--
00----
00-0--
-0*1**
0*0*-*
**--*-

Generation = 4, Population = 14.
0-*.1-
------
-101-1
01.-.*
-.1.-*
*.--*-

Generation = 5, Population = 14.
--..-1
00-000
---*-*
1-.1.*
-.-.-*
..11.-

*** Life<Cell> 6x6 ***

Generation = 0, Population = 9.
------
----00
0--0--
----00
------
-00-0-

Generation = 1, Population = 18.
----00
0---11
-00-0-
0---11
-00--0
011--0

Generation = 2, Population = 18.
0--0--
--00*-
011--0
-0-0--
0--0--
1*-001

Generation = 3, Population = 19.
-0-1--
---1*-
1*-0--
010111
100--0
-*---*

Generation = 4, Population = 15.
0--*--
0-0**1
-.1-00
1-1*--
------
-*--0.

Generation = 5, Population = 15.
10-*-0
1--..-
-.----
---*-1
10000-
1.10-.

*** Life<Cell> 6x6 ***

Generation = 0, Population = 10.
0-0--0
0-----
0----0
--0---
--00--
--0---

Generation = 1, Population = 19.
1--00-
-00---
100-0-
001--0
-0110-
-01---

Generation = 2, Population = 11.
---110
0-----
--1---
--*-0-
-1--1-
0---0-

Generation = 3, Population = 22.
1-0*-1
-00000
10*00-
--*-10
---1-0
---010

Generation = 4, Population = 13.
-0-.1*
0---1-
*1.110
0-.---
---*--
--1---

Generation = 5, Population = 17.
--0.-*
10---0
**.**1
1-*-10
0--.1-
-0----

*** Life<Cell> 6x6 ***

Generation = 0, Population = 9.
0-----
--0---
-0-00-
---0--
---0-0
0-----

Generation = 1, Population = 17.
-00---
0---0-
0-0-10
-00--0
0-01--
-0-0-0

Generation = 2, Population = 17.
-1100-
1--01-
101---
011--1
----0-
--01--

Generation = 3, Population = 18.
-*-1-0
*00--0
*1--10
-*-0--
00----
-01*--

Generation = 4, Population = 11.
-*1--1
.-1---
.*--*-
0.---1
11----
---.0-

Generation = 5, Population = 19.
0*-10-
.0*010
.*-0.-
1.----
-*0-00
00-.-0

*** Life<Cell> 6x6 ***

Generation = 0, Population = 9.
--0---
0-0--0
----0-
--0-0-
-0----
---0--

Generation = 1, Population = 18.
0010-0
--10--
0--01-
----10
0--00-
-00-0-

Generation = 2, Population = 15.
1-*---
---1-0
-0----
---0*1
---11-
-11010

Generation = 3, Population = 18.
--.--0
00----
0-0-1-
-00-.*
-0-**0
0*-1*1

Generation = 4, Population = 13.
10.-0-
-1--00
1-1---
----.*
--0..1
1*--.-

Generation = 5, Population = 16.
*-.01-
0*-1-1
-0-01-
0---..
0--..*
**--.1

*** Life<Cell> 6x6 ***

Generation = 0, Population = 8.
------
------
00----
-0--0-
--0-0-
-0--0-

Generation = 1, Population = 15.
------
00----
1-0-0-
-1-010
-0---0
0--010

Generation = 2, Population = 16.
00----
-1--0-
*--01-
-*01*-
-10-0-
--01--

Generation = 3, Population = 20.
1-0-0-
0*0-10
*0--*0
-.1*.0
0-1-10
---*--

Generation = 4, Population = 14.
*01-1-
1.--*-
*-0-.1
-.-..-
--*-*-
0--*-0

Generation = 5, Population = 18.
*-*-*0
-.-0*-
.--0.-
0*-*.0
01.0*-
-0-*1-

*** Life<Cell> 6x6 ***

Generation = 0, Population = 9.
----0-
-0----
-00---
-----0
-0----
--00-0

Generation = 1, Population = 16.
-0-0-0
01--0-
0-10-0
--0-0-
0--0--
--11--

Generation = 2, Population = 16.
-1--0-
---0-0
10-1--
-01---
-001--
00*-0-

Generation = 3, Population = 19.
0-0---
0-010-
*-1*00
-1-0--
-1-*--
11.1-0

Generation = 4, Population = 17.
1-1-0-
--1*--
*0-.11
-*1--0
---*00
*-.*--

Generation = 5, Population = 17.
--*0-0
---.00
*-1.*-
-**-0-
01-*--
.1.*-0

*** Life<Cell> 6x6 ***

Generation = 0, Population = 8.
------
----00
-0--0-
00----
0---0-
------

Generation = 1, Population = 15.
----00
-0-0-1
-1001-
--0---
1--0-0
0---0-

Generation = 2, Population = 21.
-0--1-
0101-*
0-11*-
0-1000
*0--0-
10----

Generation = 3, Population = 13.
-1----
-*1--*
-1*-.0
-0-1-1
.---1-
--0-0-

Generation = 4, Population = 19.
0*---0
0.-10.
0*.-.-
011-0*
.00-*-
-0--10

Generation = 5, Population = 16.
-*00--
-.1*1.
1..1.0
-----*
.1--.0
11-0-1

*** Life<Cell> 6x6 ***

Generation = 0, Population = 9.
--00--
------
--00--
--00--
--0--0
0-----

Generation = 1, Population = 17.
-0110-
------
-0--0-
-01-00
001-0-
-00--0

Generation = 2, Population = 18.
01--10
--00--
01-01-
-1--11
1-*-10
---0--

Generation = 3, Population = 18.
1*--*1
-01-00
1-0---
0*--*-
-0*0--
0----0

Generation = 4, Population = 18.
**-1*-
0-----
*-10-0
-.1-.1
1-*1-0
--000-

Generation = 5, Population = 16.
**-*.1
--1-00
.--1-1
-.-0.-
--.-11
00-11-

*** Life<Cell> 6x6 ***

Generation = 0, Population = 10.
-0----
-0-0-0
0-----
--00--
---0--
-0---0

Generation = 1, Population = 20.
0100-0
-1----
--0--0
001-0-
-0-100
0-000-

Generation = 2, Population = 21.
1*-1--
-*00--
0010--
11-010
01---1
-011--

Generation = 3, Population = 20.
**0*0-
0.110-
--*1-0
**1---
-*---*
---*00

Generation = 4, Population = 12.
*.1.-0
1.*---
--.-0-
*.----
-*-1-*
-01.--

Generation = 5, Population = 16.
..*.0-
*..100
--.1-0
..-010
-*0--.
0-*.-0

*** Life<Cell> 6x6 ***

Generation = 0, Population = 10.
0-0---
0--0--
------
00-00-
0----0
------

Generation = 1, Population = 13.
1-----
10--0-
-0--0-
-1-11-
1--0--
0----0

Generation = 2, Population = 18.
*---0-
--0010
--0--0
-*---0
*-01-0
10-00-

Generation = 3, Population = 18.
.00-1-
10--*-
--1---
-*011-
*-1-01
-10-1-

Generation = 4, Population = 17.
*-1-*0
*-00.0
00*---
-.----
*--11*
-*--*-

Generation = 5, Population = 20.
.-*0*-
*011.1
--*--0
-.0110
.-1***
-.0-*-

*** Life<Cell> 6x6 ***

Generation = 0, Population = 7.
------
------
------
0-----
-0--0-
00-00-

Generation = 1, Population = 10.
------
------
0-----
----0-
010-10
1--1-0

Generation = 2, Population = 12.
------
0-----
-0--0-
-0001-
--10--
*---01

Generation = 3, Population = 16.
0-----
----0-
-1--10
0-11-0
0---10
.00-1*

Generation = 4, Population = 15.
-0--0-
00-01-
------
10**--
1----1
.11--*

Generation = 5, Population = 21.
-10-10
1--1-0
--0-1-
--*.10
*1-01*
.**11.

*** Life<Cell> 6x6 ***

Generation = 0, Population = 9.
------
0--0-0
-0----
--0---
-0-0-0
---0--

Generation = 1, Population = 16.
0--0-0
--0---
---0-0
-0---0
0-01--
-00100

Generation = 2, Population = 12.
-0----
00-0--
-0---1
----01
------
-11*-1

Generation = 3, Population = 20.
-100--
11--00
-100-*
-0-01-
-0010-
0*-.--

Generation = 4, Population = 18.
---1-0
**001-
-*---*
0--1--
-1-*-0
1*-*0-

Generation = 5, Population = 22.
01-*0-
**-1*0
0.---.
-00*1-
0*-*0-
**-*1-

*** Life<Cell> 6x6 ***

Generation = 0, Population = 9.
--0--0
---0-0
0-----
-----0
--0-0-
---0--

Generation = 1, Population = 11.
-0--01
0----1
-0-0--
0-0---
-0-0--
------

Generation = 2, Population = 15.
--001-
-0-0-*
0-0-00
---0--
--0-0-
-0-0--

Generation = 3, Population = 14.
--11*-
---1-*
-0--1-
0-0-00
-----0
0-0---

Generation = 4, Population = 13.
-0***-
-0-*-*
----*0
-0----
-----1
---0-0

Generation = 5, Population = 17.
0-.**-
010.-*
----*-
0-0-0-
-0-00*
--0--1

*** Life<Cell> 6x6 ***

Generation = 0, Population = 9.
0-----
0----0
-0----
------
----00
00--0-

Generation = 1, Population = 19.
10---0
1---0-
--0--0
-0--00
00-0-1
11001-

Generation = 2, Population = 20.
-10---
*-00-0
0--001
-1--11
-101-*
-*-1*-

Generation = 3, Population = 19.
-*---0
*0--01
1---1*
-*-0-*
0*---*
1*0-*-

Generation = 4, Population = 16.
-*0--1
*-00-*
*0---.
0*--1*
-.-1-*
-.1-.-

Generation = 5, Population = 17.
-*--0*
*--1-.
.--01*
-*0-**
0*--0*
-.--.0

*** Life<Cell> 6x6 ***

Generation = 0, Population = 10.
---0--
-0-0-0
------
0-00--
----0-
--00--

Generation = 1, Population = 19.
-00100
0--1--
000--0
--11--
0--0-0
-011--

Generation = 2, Population = 14.
-1-*-1
100*--
---00-
----0-
--0---
-1--00

Generation = 3, Population = 18.
-*0*--
*1-.-0
00---0
--1-10
---0-0
0--111

Generation = 4, Population = 14.
-*-.01
.*-.01
------
0--1*1
0--1--
-11---

Generation = 5, Population = 16.
0.0.--
..0.--
00-0--
101-**
1--*-0
-**---

*** Life<Cell> 6x6 ***

Generation = 0, Population = 10.
0-----
-00---
00----
--0-0-
-0-00-
------

Generation = 1, Population = 19.
--0---
0-10--
1-0-0-
00-010
0-01-0
-0-00-

Generation = 2, Population = 18.
001---
1-*1--
-01-1-
11--*-
1-1*-1
--0-1-

Generation = 3, Population = 14.
------
*-.*--
1--0*0
--0-*-
*0-.--
0010--

Generation = 4, Population = 16.
0--0--
.0.*-0
*0--.1
---0*-
*-1.0-
-1-11-

Generation = 5, Population = 17.
--1100
.1..-1
*-1-.*
-1-1*-
.0-.-1
--1*-0

*** Life<Cell> 6x6 ***

Generation = 0, Population = 9.
--0-00
----00
0-----
0-0---
----0-
------

Generation = 1, Population = 17.
-0----
0-00--
100-00
1--00-
0-00-0
----0-

Generation = 2, Population = 12.
---0--
1--1-0
*----1
--0--0
1-1---
0-0---

Generation = 3, Population = 25.
0-0100
*00*-1
.0000-
-01001
*--0-0
1-10--

Generation = 4, Population = 18.
10-*--
*1-.-*
.1---1
--*-1-
*-1-01
*-*-00

Generation = 5, Population = 13.
---.00
.*0.0.
**---*
1-*-*1
.---1-
.-.---

*** Life<Cell> 6x6 ***

Generation = 0, Population = 9.
------
---0--
0-0--0
0-----
---00-
-0-0--

Generation = 1, Population = 19.
---0--
0---00
1---0-
100000
000-10
0--1--

Generation = 2, Population = 15.
0-0--0
10---1
--0--0
*11---
11----
1----0

Generation = 3, Population = 21.
10-001
-10-0-
-01001
**-0-0
*----0
*---0-

Generation = 4, Population = 20.
*-011*
-*---1
-1*11-
*.110-
*--0-1
.0-1--

Generation = 5, Population = 13.
.01--*
-.0-0*
--.*--
*.----
*---1-
.--*00

*** Life<Cell> 6x6 ***

Generation = 0, Population = 10.
----0-
00----
0---0-
-0--0-
------
0--0-0

Generation = 1, Population = 22.
00-0-0
-10---
10-010
--0010
00-000
-00---

Generation = 2, Population = 17.
1-0---
0*100-
*---*-
-01--1
1---1-
--1-00

Generation = 3, Population = 21.
*01-0-
1.*--0
*0--*-
01*01-
---0*0
00---1

Generation = 4, Population = 14.
*-----
-.*00-
.-0-*-
-*.1*-
----.-
1110-*

Generation = 5, Population = 20.
.0100-
1**--0
.-1-.0
0.***1
1-0-.0
*--1-.

*** Life<Cell> 6x6 ***

Generation = 0, Population = 10.
--00--
------
---00-
-0--0-
0--000
------

Generation = 1, Population = 20.
-0110-
--0-0-
-001-0
--00--
--0111
0--000

Generation = 2, Population = 16.
01*--0
-0--1-
01--0-
--11--
00--*-
-0--1-

Generation = 3, Population = 22.
1**1--
0--0*-
1---10
-0**0-
1---*1
-100*0

Generation = 4, Population = 15.
-**---
----.-
*-01*1
01*.10
-0-1.-
-*--.-

Generation = 5, Population = 16.
1..1--
00-0*0
*1--.-
-*..--
--0-*1
0.00.-

*** Life<Cell> 6x6 ***

Generation = 0, Population = 9.
---0--
------
-----0
------
-00000
-00---

Generation = 1, Population = 15.
--0-0-
---0-0
----0-
-0000-
0-1--1
0---00

Generation = 2, Population = 18.
-0-0--
------
-0001-
-11---
10*-0*
10001-

Generation = 3, Population = 15.
0---0-
--0-0-
0-1-*0
-**--0
--.0-*
-11---

Generation = 4, Population = 15.
-00010
-01---
-0--*-
-**---
--.--.
1**--0

Generation = 5, Population = 20.
0-1--1
01---0
0-10.0
0**00-
1-.--.
**.01-

*** Life<Cell> 6x6 ***

Generation = 0, Population = 9.
-0--0-
0-----
----00
---00-
------
0---0-

Generation = 1, Population = 13.
--00-0
-----0
0----1
--01--
0--0--
-0-0-0

Generation = 2, Population = 20.
-011-1
0-000-
-0000*
-01-00
----00
---1--

Generation = 3, Population = 14.
-1*-0-
--1--0
---1-.
0--111
-00---
--0--0

Generation = 4, Population = 13.
0**---
--*---
0--*-*
-----*
-1--0-
--110-

Generation = 5, Population = 15.
1**1--
--*--0
-0-.-.
00-1-*
0---1-
--*--0

*** Life<Cell> 6x6 ***

Generation = 0, Population = 9.
0-0-0-
-----0
000-0-
------
-0----
------

Generation = 1, Population = 10.
------
-0--0-
1-1---
0-0-0-
0-0---
-0----

Generation = 2, Population = 14.
-0--0-
---0-0
*0*0--
-----0
10100-
------

Generation = 3, Population = 14.
0-0---
0--10-
.-*-0-
------
*---1-
00000-

Generation = 4, Population = 18.
1---0-
100*-0
.0.010
0-0---
*-1-*0
-----0

Generation = 5, Population = 13.
*-0---
-1-.-1
.1.---
101---
.-*-*-
0-0--1

*** Life<Cell> 6x6 ***

Generation = 0, Population = 8.
0-----
------
0--000
0-0---
------
-0----

Generation = 1, Population = 16.
-0----
---000
10-1-1
1---00
000---
0-0---

Generation = 2, Population = 20.
0-0000
0-0---
-1-*--
-00-1-
1--000
1010--

Generation = 3, Population = 18.
1----1
101000
-*-*--
--1-*-
*00-11
-----0

Generation = 4, Population = 17.
*-00-*
-1-1--
-.-.01
10*0*-
.-----
101--1

Generation = 5, Population = 17.
.01--.
--1*--
1.0.-*
*-*-*-
.--011
*-*00-

*** Life<Cell> 6x6 ***

Generation = 0, Population = 10.
-0---0
0-0-0-
------
----00
--00--
--0---

Generation = 1, Population = 12.
------
-0----
0-0--0
--0-11
-0-1-0
-01---

Generation = 2, Population = 18.
-0----
-----0
-010-1
0-10**
01--01
0-*--0

Generation = 3, Population = 20.
0-0--0
--0001
-1*-0-
1--1..
1*0--*
10.0-1

Generation = 4, Population = 16.
--1--1
0-1-1-
-*.-1-
*01-*.
*.110.
--.--*

Generation = 5, Population = 19.
00*0--
-0*-*-
0..0-1
*1-1**
*.---*
1-.0-.

*** Life<Cell> 6x6 ***

Generation = 0, Population = 9.
-----0
-0-0--
-0-000
------
-0-0--
------

Generation = 1, Population = 15.
-0-00-
01-1--
01---1
----00
0---0-
-0-0--

Generation = 2, Population = 12.
-1--10
-*-*-0
--00-*
-0-0--
----1-
------

Generation = 3, Population = 19.
0*0-*-
0*0*0-
-111-.
0-01-0
-0---0
----0-

Generation = 4, Population = 11.
-.-0*0
-.-.-0
0--*-.
-----1
---0-1
-0-0--

Generation = 5, Population = 20.
-.01*-
0.-*-1
-11.0.
0---0*
-001-*
0--100

*** Life<Cell> 6x6 ***

Generation = 0, Population = 9.
----0-
------
-----0
-0--00
0----0
0---0-

Generation = 1, Population = 16.
---0-0
----00
-0---1
--0011
1---01
10-0--

Generation = 2, Population = 18.
--0-01
-0--11
0--00-
0-1-**
*-00--
-1---0

Generation = 3, Population = 12.
------
----*-
1--111
--*-.*
*0-1--
---00-

Generation = 4, Population = 18.
----0-
0---*-
-0-**-
--*0.*
.10*-1
110-10

Generation = 5, Population = 16.
0--011
----*1
--0..-
-0.1.*
*--.0-
**-0*-

*** Life<Cell> 6x6 ***

Generation = 0, Population = 8.
0-----
0-----
00----
--0---
----0-
0---0-

Generation = 1, Population = 15.
10----
------
-1----
0--00-
0-0010
-0-010

Generation = 2, Population = 13.
*10---
0-----
--000-
1-----
101---
--0-*-

Generation = 3, Population = 18.
*-10--
1--00-
-11-10
*--00-
---01-
0-1-.0

Generation = 4, Population = 10.
.-*---
*-0---
0**-*1
.---1-
------
----*-

Generation = 5, Population = 16.
.1.0--
*0-000
-.*-**
.000*-
------
---0.0

*** Life<Cell> 7x7 ***

Generation = 0, Population = 10.
---0-0-
-------
0---0--
0------
-0-----
---0--0
--00---

Generation = 1, Population = 23.
--0---0
0--000-
10-0-0-
1---0--
--00--0
-0-100-
-01-0-0

Generation = 2, Population = 26.
00--0--
1------
*1-1-10
*-00--0
0-1-0--
01--110
0-*010-

Generation = 3, Population = 31.
-100-0-
-0-0000
**0*-*-
*0----1
-0*01--
1*0-**1
10*-*--

Generation = 4, Population = 20.
0---01-
---1--1
..-*0.0
.10-0--
01.----
-.11..*
-1*-*-0

Generation = 5, Population = 27.
-1--1*-
1-0*0-*
..-.-.1
*-10101
1-.01-0
1.-*.*.
1**0.-1

*** Life<Cell> 7x7 ***

Generation = 0, Population = 8.
-------
-0-----
-----0-
0---0--
-----0-
--00---
-0-----

Generation = 1, Population = 20.
-0-----
0-0--0-
00----0
-0-0-0-
0-00--0
--1100-
0--0---

Generation = 2, Population = 19.
-----0-
1--00--
---0-0-
0101--0
-0-1-0-
-0---1-
-0-1-0-

Generation = 3, Population = 25.
0--0--0
-00-10-
-0--0--
1*-*00-
--0*-1-
0-1-0-0
01---10

Generation = 4, Population = 17.
-------
--10-1-
-----0-
**0.1-0
---.-*-
10*1--1
-*---*-

Generation = 5, Population = 25.
--00-0-
-0*1-*0
00-0-1-
.*1.---
---.-*0
*1**01-
-*-10.-

*** Life<Cell> 7x7 ***

Generation = 0, Population = 10.
0-----0
------0
0------
---0---
---0---
--00---
--0-0--

Generation = 1, Population = 18.
-0---01
-----01
-0-0--0
0-010--
----0--
-0-----
-010-0-

Generation = 2, Population = 27.
0-0-0--
---00-*
--01--1
-01*-00
000-10-
01-000-
0--1--0

Generation = 3, Population = 15.
---0101
0-0---.
---*---
---.0--
-----1-
1-0-1--
1-1*---

Generation = 4, Population = 17.
0--1--*
---000.
0--*---
---.---
0-0-1-0
*-10---
*--*---

Generation = 5, Population = 22.
-00*--.
--01-1.
-00*-0-
--1*0-0
1-10---
*-----0
.0-*0--

*** Life<Cell> 7x7 ***

Generation = 0, Population = 10.
0----0-
-------
-------
-0-00--
----000
0-0----
-------

Generation = 1, Population = 21.
-0--0-0
0----0-
-0-00--
0--1--0
000---1
---0000
0-0----

Generation = 2, Population = 23.
--00-0-
-0-00--
0---1-0
10-*-01
--100--
-001---
----000

Generation = 3, Population = 28.
--1-0-0
--0---0
10-0*01
-10.-1-
00--1-1
011-000
-00-1-1

Generation = 4, Population = 25.
-0*---1
0-1----
*--1*1-
1*1.0*1
-110*-*
----1-1
----*0*

Generation = 5, Population = 23.
-1*0-0-
10*-000
*-0*.--
-.-.1.-
--*-.0*
-11--0-
---0*-*

*** Life<Cell> 7x7 ***

Generation = 0, Population = 9.
-------
--0----
--0-0--
00-00--
---00--
-------
-------

Generation = 1, Population = 21.
--0----
-0100--
0-1010-
110-10-
000--0-
---00--
-------

Generation = 2, Population = 24.
--1-0--
-1-1---
1-*1--0
**10-10
-1--010
00-11--
---00--

Generation = 3, Population = 22.
---0-0-
---*--0
*-.*1-1
*.*-1-1
0--0-*-
1---*-0
000--0-

Generation = 4, Population = 19.
--11---
0-1*--1
.0*.---
*.*-*1*
-1---.0
--0-*--
--10---

Generation = 5, Population = 23.
00--0-0
-1*.00-
*1..10-
*.*-.-*
--0--.1
--11.00
-0-1---

*** Life<Cell> 7x7 ***

Generation = 0, Population = 10.
-----0-
------0
------0
-0--0--
0------
--000--
0------

Generation = 1, Population = 20.
----0--
------1
-0--001
--00-00
--00---
-01-10-
-0000--

Generation = 2, Population = 18.
---0-00
-0----*
0---11*
----0--
--1---0
0-*--10
0-1----

Generation = 3, Population = 29.
-00--1-
--0000.
---0--*
0-001--
00*00-1
1-*01*-
1-*0-00

Generation = 4, Population = 22.
01---*0
---1--*
0-0-1-.
10---0-
1-.-10-
-0.-*.0
*-*-0-1

Generation = 5, Population = 26.
1*000*-
-0----*
10-0--.
*1--110
*0.0---
1-.0*.1
.0.-1-*

*** Life<Cell> 7x7 ***

Generation = 0, Population = 8.
-------
0---0--
------0
------0
-----0-
-0--0--
-----0-

Generation = 1, Population = 18.
0---0--
-0-0-00
0---001
------1
-0-----
0-00-0-
-0----0

Generation = 2, Population = 15.
------0
0------
----11*
00--0-*
---0-00
--11---
---0---

Generation = 3, Population = 25.
0----0-
-0--00-
-0-0--*
110-1-.
00-101-
-0**000
---10--

Generation = 4, Population = 14.
-----10
-10-1--
--0-1-.
--1-*-.
-1-----
--..-11
-0----0

Generation = 5, Population = 20.
-00--*1
0*--*-0
-----1.
--*-.0.
0---010
--..0*-
0-0---1

*** Life<Cell> 7x7 ***

Generation = 0, Population = 10.
-------
-00----
-----0-
--0--0-
----0--
---0-0-
-00----

Generation = 1, Population = 24.
-00----
0110-0-
-0--010
-0-0-10
--0--0-
-0--0-0
011--0-

Generation = 2, Population = 23.
-----0-
1-*101-
---01--
010-0*-
-0---10
-100---
1**0---

Generation = 3, Population = 27.
0-00-10
--**1-0
-00-*1-
1*10-.-
--00--1
-*1-000
*..-0--

Generation = 4, Population = 19.
----0*-
1-..--1
--1-.*-
*.---*0
001---*
-*-0---
.*.01-0

Generation = 5, Population = 20.
0--01*-
-1..11-
-0-0.*0
*.--0*-
-1*---*
-.11---
...-*--

*** Life<Cell> 7x7 ***

Generation = 0, Population = 8.
----0--
----0-0
-0-----
-------
--00---
-------
---0--0

Generation = 1, Population = 23.
---0100
-0-01--
0-0-0-0
-000---
-0110--
--0---0
--0-00-

Generation = 2, Population = 19.
-00-*-1
--0-*--
--1-1--
----0-0
0--*100
-------
-01-11-

Generation = 3, Population = 28.
01--.--
----*00
-0*--00
0-0--01
-01**--
0000--0
01*-**0

Generation = 4, Population = 23.
1*0-.01
0-00*1-
-1*0-11
-------
0--.*--
----0-1
-*.0**-

Generation = 5, Population = 26.
-.--.-*
1-11.*0
-*.-1-*
0000001
-0-..00
00---0-
0..1**-

*** Life<Cell> 7x7 ***

Generation = 0, Population = 9.
------0
----0--
---0---
0-----0
-------
0---0-0
0------

Generation = 1, Population = 18.
----00-
-----00
0-0---0
-0-0-0-
----0--
10-0---
10--0-0

Generation = 2, Population = 14.
---01--
0-0----
-0---01
--0-0--
0--0---
----0-0
--0----

Generation = 3, Population = 23.
0--1*0-
-0--000
--0--1*
0--0--0
-0--0-0
1-0----
-0-00-0

Generation = 4, Population = 8.
--0*.--
-------
0-----.
-------
0-----1
-------
--011--

Generation = 5, Population = 18.
-01..--
0-00---
-0----.
------0
-0---0-
1-000-0
-01-*0-

*** Life<Cell> 7x7 ***

Generation = 0, Population = 10.
-----0-
0-0----
------0
------0
------0
-0---0-
-0--0--

Generation = 1, Population = 21.
0-0-0-0
---0-00
0-0--01
-----0-
-0----1
010----
0100---

Generation = 2, Population = 20.
---0-01
--0-0-1
----01-
000-010
-1-----
------0
-*110--

Generation = 3, Population = 27.
----01-
-0-01-*
00-01-1
111--*1
-*--00-
--0000-
0.--100

Generation = 4, Population = 19.
-0---*-
-1--*0*
-10--1-
--*-0.-
-.0--1-
0-1--1-
-.1--11

Generation = 5, Population = 26.
010--*-
0--0*-*
0--01*-
--*--*-
0.-0-*1
---00--
0**11-*

*** Life<Cell> 7x7 ***

Generation = 0, Population = 9.
0--0---
--0----
-0-----
-------
-0----0
--0---0
0------

Generation = 1, Population = 15.
-0--0--
0------
0------
------0
0----01
0--0-01
-00---0

Generation = 2, Population = 19.
--00-0-
1---0--
10----0
------1
10-00-*
1-----*
-11---1

Generation = 3, Population = 33.
00110-0
*-0---0
-10-001
---000-
-1-11-*
*00000*
-**0-0*

Generation = 4, Population = 19.
--*-1-1
*------
-*-0-1-
------1
-*0**-*
*-1-11.
-..-0-*

Generation = 5, Population = 25.
00.----
.-00000
-.-----
--0-0-*
-*1.*0*
.0*0***
0..010.

*** Life<Cell> 7x7 ***

Generation = 0, Population = 9.
-------
---0---
-----0-
-000-00
-------
-----0-
----0--

Generation = 1, Population = 18.
---0---
--0-00-
-00-01-
01-1--1
-000--0
------0
---0---

Generation = 2, Population = 18.
-----0-
--10--0
---0---
1*-*--*
----00-
-00--01
--0-0-0

Generation = 3, Population = 22.
--000--
-0*-0--
00--0--
*.-*--.
0-0-1-0
01-00--
--1--01

Generation = 4, Population = 15.
-----0-
--.0-0-
----11-
*.-*0-.
-0--*--
-*-1---
0----1*

Generation = 5, Population = 23.
---0010
--.-0-0
0--0--0
..0*1-.
-100*0-
-*---01
---00*.

*** Life<Cell> 7x7 ***

Generation = 0, Population = 9.
-0-----
-0-0---
----00-
0-00---
-------
-------
-0-----

Generation = 1, Population = 23.
0100---
01---0-
0000110
--11-0-
0-00---
-0-----
0-0----

Generation = 2, Population = 24.
-*-100-
1*0--1-
-111--1
--**01-
-0--00-
0-00---
-0-0---

Generation = 3, Population = 18.
-*0*--0
*.-0-*-
-----1-
-0..1--
--00--0
--1--0-
--010--

Generation = 4, Population = 20.
-*-*0--
.*-1-*-
01-1-*1
0-**--0
---1---
-0-0---
-0--1--

Generation = 5, Population = 24.
0.-*1--
.*--0*-
--1--*-
10.*1-1
00--0-0
01-1---
010--0-

*** Life<Cell> 7x7 ***

Generation = 0, Population = 9.
-0---0-
0-0--0-
-------
------0
-------
-0---0-
--0----

Generation = 1, Population = 21.
----010
-0-0010
0-0--00
-----0-
-0---00
0---0-0
---0-0-

Generation = 2, Population = 18.
-0---*-
--011-1
-0---1-
000-0-0
--0----
------1
0-0-0--

Generation = 3, Population = 23.
0--0-*-
-01-*--
-1000-0
11---0-
0-100--
0---00-
-----00

Generation = 4, Population = 16.
----0.0
----.-1
-*1--1-
--0-0--
-0*--0-
100----
0-----1

Generation = 5, Population = 20.
---0-*1
-01-.-*
0*-0---
-1---0-
--.0--0
-1-0-01
1-0--0-

*** Life<Cell> 7x7 ***

Generation = 0, Population = 10.
----0--
-------
0----0-
-0-----
--0-0--
-----0-
0---0-0

Generation = 1, Population = 15.
---0-0-
0---00-
----0-0
----00-
-------
0-0-0--
-0-0-0-

Generation = 2, Population = 18.
0-0-010
-0-----
0--0---
---0-1-
0-0--0-
-0-0---
--0-0-0

Generation = 3, Population = 23.
-0--1-1
0--0000
--0100-
---1-*0
-0-0010
-----00
---0---

Generation = 4, Population = 19.
--0-*1*
-----1-
001-110
-0---.-
0-----1
-0-----
--0-000

Generation = 5, Population = 23.
-0--***
00--0-0
11*-**1
01--0.-
-0---1-
----00-
----1-1

*** Life<Cell> 7x7 ***

Generation = 0, Population = 9.
0----00
-----00
-----0-
0------
---0---
-------
-----0-

Generation = 1, Population = 18.
-0--0--
0---01-
0---01-
-0-0-0-
0-0-0--
---0-0-
----0-0

Generation = 2, Population = 18.
--001--
1--01-0
1----*0
0-0--10
-0---0-
0------
-----0-

Generation = 3, Population = 25.
0011-00
*0---11
-000-.1
10-00*-
0---01-
-------
0---0-0

Generation = 4, Population = 17.
-1-*---
.10-1-*
11---.*
--0-1.-
1-----0
-----00
-0-0---

Generation = 5, Population = 24.
0*1*--0
.*10--.
*-0--..
-----*-
-00-0-1
00-001-
0---000

*** Life<Cell> 7x7 ***

Generation = 0, Population = 10.
-----0-
-------
0----0-
-0-----
00-0---
------0
0-0----

Generation = 1, Population = 19.
----0-0
0------
----0-0
0100-0-
1---0-0
-000-0-
---0--0

Generation = 2, Population = 17.
0--0---
-0-----
-00--0-
---1--0
*0-0---
-1--0-0
-0-10--

Generation = 3, Population = 21.
--0-0--
-1-0-0-
0-1-0--
0--*0--
*--1---
--001--
01-*-00

Generation = 4, Population = 19.
---0---
------0
10--1--
-1-.-0-
.0--0--
--1-*-0
1*0*011

Generation = 5, Population = 29.
--0-0-0
01-000-
*-10--0
--0.0-0
.1-11-0
01*0.01
**1.1--

*** Life<Cell> 7x7 ***

Generation = 0, Population = 9.
--0----
----0--
-------
-00-0--
-------
--00-0-
----0--

Generation = 1, Population = 22.
-0-00--
--00-0-
-00----
011--0-
-0-000-
-0110-0
--0----

Generation = 2, Population = 18.
0-0-1--
-0--0-0
--1----
1----10
----1--
0-**-0-
--1-0-0

Generation = 3, Population = 24.
-0--*00
--001--
0--000-
-11--*1
--0--00
--*.---
00*0-0-

Generation = 4, Population = 20.
0---*-1
0-11*00
--1-1--
-*---.-
---01--
0-..--0
1-*1--0

Generation = 5, Population = 32.
100-*0*
1---.--
0-*0*-0
1.-0-.-
0001*00
10*.001
*-.*001

*** Life<Cell> 7x7 ***

Generation = 0, Population = 7.
--00---
-------
-------
-0-----
-------
---0---
-00--0-

Generation = 1, Population = 19.
-0110--
--00---
-0-----
0-0----
-0-0---
-0--00-
011-0-0

Generation = 2, Population = 18.
01**10-
-0-----
--00---
-------
-10--0-
-----1-
1**-10-

Generation = 3, Population = 29.
1***-10
-10-00-
--110--
-0-0-0-
0*10010
0-----0
**.-*-0

Generation = 4, Population = 19.
*..*1-1
--1----
-0-*-0-
-1---1-
-.-1-*-
-000---
**.0.-1

Generation = 5, Population = 28.
...**--
0--0000
011.-10
0*0-0-0
-*-*-.0
---1010
**.1.0-
